<?xml version="1.0" encoding="UTF-8"?>
<svg width="32px" height="32px" viewBox="0 0 32 32" version="1.1" xmlns="http://www.w3.org/2000/svg" xmlns:xlink="http://www.w3.org/1999/xlink">
    <!-- Generator: Sketch 52.3 (67297) - http://www.bohemiancoding.com/sketch -->
    <title>btn_main_edit2_disable</title>
    <desc>Created with Sketch.</desc>
    <g id="btn_main_edit2_disable" stroke="none" stroke-width="1" fill="none" fill-rule="evenodd">
        <polygon id="Fill-1" points="0 32.0001 32 32.0001 32 0.0001 0 0.0001"></polygon>
        <path d="M11.587,23.9994 L9.969,23.9994 L9.969,22.0304 L8.001,22.0304 L8.001,20.4154 L9.624,18.7924 L13.209,22.3784 L11.587,23.9994 Z M17.076,11.3434 L18.161,12.4284 L12.125,18.4644 L11.039,17.3794 L17.076,11.3434 Z M23.453,12.1354 L22.075,13.5134 L18.49,9.9294 L19.869,8.5504 L23.453,12.1354 Z M20.661,14.9274 L14.623,20.9634 L13.539,19.8794 L19.576,13.8424 L20.661,14.9274 Z M26.281,12.1354 L19.869,5.7214 L9.625,15.9654 L9.624,15.9644 L6.001,19.5864 L6,25.9994 L12.415,25.9994 L16.038,22.3794 L16.037,22.3784 L26.281,12.1354 Z" id="Fill-2" fill="#C8C8C8"></path>
    </g>
</svg>