<?xml version="1.0" encoding="UTF-8"?>
<svg width="32px" height="32px" viewBox="0 0 32 32" version="1.1" xmlns="http://www.w3.org/2000/svg" xmlns:xlink="http://www.w3.org/1999/xlink">
    <!-- Generator: Sketch 52.3 (67297) - http://www.bohemiancoding.com/sketch -->
    <title>btn_main_create_active</title>
    <desc>Created with Sketch.</desc>
    <g id="btn_main_create_active" stroke="none" stroke-width="1" fill="none" fill-rule="evenodd">
        <polygon id="Fill-1" points="0 32.0001 32 32.0001 32 0.0001 0 0.0001"></polygon>
        <circle id="Oval" fill="#008CD6" cx="16" cy="16" r="16"></circle>
        <path d="M15,15 L15,6 L17,6 L17,15 L26,15 L26,17 L17,17 L17,26 L15,26 L15,17 L6,17 L6,15 L15,15 Z" id="Combined-Shape" fill="#FFFFFF" fill-rule="nonzero"></path>
    </g>
</svg>