<?xml version="1.0" encoding="utf-8"?>
<!-- Generator: Adobe Illustrator 16.0.0, SVG Export Plug-In . SVG Version: 6.00 Build 0)  -->
<!DOCTYPE svg PUBLIC "-//W3C//DTD SVG 1.1//EN" "http://www.w3.org/Graphics/SVG/1.1/DTD/svg11.dtd">
<svg version="1.1" id="圖層_1" xmlns="http://www.w3.org/2000/svg" xmlns:xlink="http://www.w3.org/1999/xlink" x="0px" y="0px"
	 width="512px" height="128px" viewBox="0 0 512 128" enable-background="new 0 0 512 128" xml:space="preserve">
<g>
	<g>
		<path fill="#004889" d="M19.95,30.377h7.435l2.744,22.477h0.089l3.273-22.477h6.903l3.54,22.477h0.089l2.654-22.477h7.168
			L48.359,61.97H40.13l-3.231-22.434h-0.087L33.758,61.97h-8.23L19.95,30.377z"/>
		<path fill="#004889" d="M54.993,30.377h7.435V61.97h-7.435V30.377z"/>
		<path fill="#004889" d="M71.762,52.324v1.105c0,2.39,0.664,4.204,3.23,4.204c2.611,0,3.363-1.947,3.363-3.761
			c0-6.814-13.583-3.009-13.583-14.824c0-5.044,2.698-9.292,10.354-9.292c7.433,0,10.088,3.761,10.088,8.629v0.752h-7.168
			c0-1.505-0.178-2.61-0.621-3.319c-0.441-0.752-1.15-1.106-2.256-1.106c-1.857,0-2.965,1.106-2.965,3.407
			c0,6.593,13.584,3.275,13.584,14.425c0,7.168-3.981,10.044-10.797,10.044c-5.396,0-10.398-1.638-10.398-8.23v-2.036H71.762z"/>
		<path fill="#004889" d="M87.821,30.377h18.276v6.017H95.257v6.328h10.177v6.018H95.257v7.213h11.327v6.017H87.821V30.377z"/>
		<path fill="#004889" d="M107.6,46.173h13.361v6.018H107.6V46.173z"/>
		<path fill="#004889" d="M123.217,30.377h11.506c7.832,0,9.336,5.664,9.336,9.601c0,5.664-2.7,9.646-10.134,9.646h-3.273V61.97
			h-7.435V30.377z M130.651,44.138h2.036c2.964,0,3.671-1.858,3.671-3.983c0-2.434-0.796-4.292-3.806-4.292h-1.901V44.138z"/>
		<path fill="#004889" d="M144.189,45.376c0.045-3.274,1.019-5.265,2.699-6.416c1.682-1.151,3.717-1.55,6.682-1.55
			c5.885,0,8.496,2.036,8.496,7.081v12.301c0,1.814,0,4.116,0.841,5.177h-6.903c-0.265-0.84-0.354-1.814-0.397-2.744h-0.089
			c-0.974,2.124-3.231,3.363-5.619,3.363c-4.026,0-6.373-2.124-6.373-7.302c0-2.787,1.151-5.132,2.92-6.106
			c1.771-0.974,4.427-1.416,6.416-1.946c2.169-0.575,2.567-0.93,2.567-2.744c0-1.46-0.663-2.39-2.257-2.39
			c-1.99,0-2.566,1.195-2.61,3.274H144.189z M152.508,57.633c1.505,0,2.877-0.885,2.877-3.274c0-1.992,0.044-3.23,0.044-4.204
			c-2.257,1.194-3.229,1.238-3.894,1.77c-0.754,0.575-1.106,1.327-1.106,2.654C150.429,56.482,151.182,57.633,152.508,57.633z"/>
		<path fill="#004889" d="M164.763,45.376c0.044-3.274,1.019-5.265,2.7-6.416c1.68-1.151,3.716-1.55,6.68-1.55
			c5.888,0,8.497,2.036,8.497,7.081v12.301c0,1.814,0,4.116,0.843,5.177h-6.903c-0.267-0.84-0.356-1.814-0.399-2.744h-0.088
			c-0.973,2.124-3.23,3.363-5.619,3.363c-4.027,0-6.372-2.124-6.372-7.302c0-2.787,1.149-5.132,2.92-6.106
			c1.77-0.974,4.425-1.416,6.416-1.946c2.169-0.575,2.567-0.93,2.567-2.744c0-1.46-0.664-2.39-2.258-2.39
			c-1.992,0-2.567,1.195-2.609,3.274H164.763z M173.083,57.633c1.503,0,2.876-0.885,2.876-3.274c0-1.992,0.045-3.23,0.045-4.204
			c-2.258,1.194-3.231,1.238-3.895,1.77c-0.753,0.575-1.107,1.327-1.107,2.654C171.002,56.482,171.754,57.633,173.083,57.633z"/>
		<path fill="#004889" d="M191.93,52.324v1.105c0,2.39,0.664,4.204,3.229,4.204c2.612,0,3.363-1.947,3.363-3.761
			c0-6.814-13.584-3.009-13.584-14.824c0-5.044,2.7-9.292,10.354-9.292c7.435,0,10.089,3.761,10.089,8.629v0.752h-7.169
			c0-1.505-0.175-2.61-0.618-3.319c-0.441-0.752-1.15-1.106-2.258-1.106c-1.857,0-2.965,1.106-2.965,3.407
			c0,6.593,13.586,3.275,13.586,14.425c0,7.168-3.982,10.044-10.798,10.044c-5.397,0-10.397-1.638-10.397-8.23v-2.036H191.93z"/>
		<path fill="#004889" d="M215.423,29.757h6.018l-10.089,32.833h-6.016L215.423,29.757z"/>
		<path fill="#008BD5" d="M229.625,52.324v1.105c0,2.39,0.664,4.204,3.23,4.204c2.611,0,3.362-1.947,3.362-3.761
			c0-6.814-13.583-3.009-13.583-14.824c0-5.044,2.698-9.292,10.354-9.292c7.434,0,10.09,3.761,10.09,8.629v0.752h-7.17
			c0-1.505-0.178-2.61-0.619-3.319c-0.442-0.752-1.151-1.106-2.256-1.106c-1.858,0-2.965,1.106-2.965,3.407
			c0,6.593,13.584,3.275,13.584,14.425c0,7.168-3.983,10.044-10.797,10.044c-5.398,0-10.398-1.638-10.398-8.23v-2.036H229.625z"/>
		<path fill="#008BD5" d="M245.686,45.376c0.045-3.274,1.018-5.265,2.698-6.416c1.683-1.151,3.718-1.55,6.683-1.55
			c5.884,0,8.495,2.036,8.495,7.081v12.301c0,1.814,0,4.116,0.841,5.177H257.5c-0.266-0.84-0.354-1.814-0.398-2.744h-0.089
			c-0.973,2.124-3.23,3.363-5.618,3.363c-4.026,0-6.374-2.124-6.374-7.302c0-2.787,1.151-5.132,2.921-6.106
			c1.771-0.974,4.427-1.416,6.416-1.946c2.169-0.575,2.566-0.93,2.566-2.744c0-1.46-0.662-2.39-2.256-2.39
			c-1.991,0-2.566,1.195-2.611,3.274H245.686z M254.004,57.633c1.505,0,2.876-0.885,2.876-3.274c0-1.992,0.044-3.23,0.044-4.204
			c-2.256,1.194-3.229,1.238-3.894,1.77c-0.753,0.575-1.106,1.327-1.106,2.654C251.924,56.482,252.677,57.633,254.004,57.633z"/>
		<path fill="#008BD5" d="M266.701,45.376c0.044-3.274,1.018-5.265,2.7-6.416c1.68-1.151,3.715-1.55,6.681-1.55
			c5.886,0,8.496,2.036,8.496,7.081v12.301c0,1.814,0,4.116,0.84,5.177h-6.903c-0.265-0.84-0.353-1.814-0.398-2.744h-0.088
			c-0.974,2.124-3.229,3.363-5.618,3.363c-4.027,0-6.372-2.124-6.372-7.302c0-2.787,1.149-5.132,2.921-6.106
			c1.769-0.974,4.424-1.416,6.415-1.946c2.168-0.575,2.567-0.93,2.567-2.744c0-1.46-0.665-2.39-2.258-2.39
			c-1.992,0-2.567,1.195-2.611,3.274H266.701z M275.021,57.633c1.502,0,2.875-0.885,2.875-3.274c0-1.992,0.045-3.23,0.045-4.204
			c-2.258,1.194-3.231,1.238-3.895,1.77c-0.752,0.575-1.105,1.327-1.105,2.654C272.941,56.482,273.691,57.633,275.021,57.633z"/>
		<path fill="#008BD5" d="M294.31,52.324v1.105c0,2.39,0.665,4.204,3.23,4.204c2.611,0,3.363-1.947,3.363-3.761
			c0-6.814-13.585-3.009-13.585-14.824c0-5.044,2.699-9.292,10.355-9.292c7.434,0,10.087,3.761,10.087,8.629v0.752h-7.167
			c0-1.505-0.178-2.61-0.619-3.319c-0.443-0.752-1.151-1.106-2.256-1.106c-1.859,0-2.967,1.106-2.967,3.407
			c0,6.593,13.586,3.275,13.586,14.425c0,7.168-3.983,10.044-10.798,10.044c-5.397,0-10.397-1.638-10.397-8.23v-2.036H294.31z"/>
		<path fill="#008BD5" d="M331.488,41.35c0-4.602-0.531-6.637-3.01-6.637c-2.964,0-3.23,2.832-3.23,11.106
			c0,9.38,0.311,11.814,3.407,11.814c2.744,0,3.053-3.141,3.097-8.053h7.17v1.106c0,6.814-1.903,11.903-11.107,11.903
			c-9.514,0-10.266-7.124-10.266-16.638c0-8.097,0.443-16.195,10.973-16.195c6.55,0,10.134,2.832,10.134,10.266v1.327H331.488z"/>
		<path fill="#008BD5" d="M339.803,50.067c0-7.168,1.594-12.656,9.867-12.656c8.763,0,9.867,5.355,9.867,12.523
			c0,7.168-1.592,12.655-9.867,12.655C340.91,62.589,339.803,57.235,339.803,50.067z M349.715,42.102
			c-2.125,0-2.744,2.08-2.744,7.876c0,5.841,0.619,7.921,2.744,7.921c2.213,0,2.656-1.992,2.656-7.877
			C352.371,44.093,351.928,42.102,349.715,42.102z"/>
		<path fill="#008BD5" d="M361.836,38.031h6.904v2.832h0.088c1.018-2.124,3.098-3.452,5.753-3.452c2.08,0,4.823,0.398,5.885,3.673
			c1.681-2.788,3.273-3.673,5.93-3.673c4.071,0,6.237,2.036,6.237,6.639v17.92h-7.167V45.642c0-1.725-0.753-2.743-2.08-2.743
			c-1.37,0-2.566,1.062-2.566,3.407V61.97h-7.169V45.642c0-1.725-0.752-2.743-2.078-2.743c-1.371,0-2.566,1.062-2.566,3.407V61.97
			h-7.17V38.031z"/>
		<path fill="#008BD5" d="M395.729,38.031h6.901v2.92h0.09c0.531-1.637,1.991-3.54,5.178-3.54c4.822,0,7.388,3.452,7.388,12.391
			c0,7.433-1.062,12.788-6.947,12.788c-1.99,0-4.158-0.664-5.354-3.23h-0.089v10.397h-7.167V38.031z M405.375,57.368
			c2.609,0,2.743-2.875,2.743-7.212c0-3.85-0.09-7.522-2.788-7.522c-2.123,0-2.566,2.567-2.566,7.212
			C402.764,54.094,402.941,57.368,405.375,57.368z"/>
		<path fill="#008BD5" d="M416.788,50.067c0-7.168,1.593-12.656,9.866-12.656c8.763,0,9.869,5.355,9.869,12.523
			c0,7.168-1.593,12.655-9.869,12.655C417.895,62.589,416.788,57.235,416.788,50.067z M426.699,42.102
			c-2.125,0-2.742,2.08-2.742,7.876c0,5.841,0.617,7.921,2.742,7.921c2.213,0,2.655-1.992,2.655-7.877
			C429.354,44.093,428.912,42.102,426.699,42.102z"/>
		<path fill="#008BD5" d="M444.087,54.359c0.046,1.062,0.134,1.991,0.487,2.698c0.398,0.664,1.063,1.107,2.213,1.107
			c1.68,0,2.565-1.062,2.565-2.434c0-1.107-0.531-2.168-2.743-2.921c-5.885-1.991-8.718-3.142-8.718-8.185
			c0-4.779,3.363-7.214,9.116-7.214c6.727,0,8.673,3.275,8.673,6.727v0.796h-6.373v-0.442c0-2.08-0.841-2.655-2.345-2.655
			c-1.902,0-2.434,0.93-2.434,2.213c0,4.247,11.461,1.416,11.461,10.708c0,4.823-3.229,7.832-9.16,7.832
			c-6.416,0-9.114-2.39-9.114-7.168v-1.062H444.087z"/>
		<path fill="#008BD5" d="M464.352,51.173v1.46c0,3.716,0.531,5.531,2.611,5.531c1.857,0,2.434-1.372,2.61-4.38h6.637
			c-0.133,5.929-3.363,8.805-9.292,8.805c-9.027,0-9.733-6.328-9.733-13.452c0-6.726,1.946-11.727,9.733-11.727
			c8.894,0,9.514,5.621,9.514,13.762H464.352z M469.527,47.014c0-3.362-0.441-5.177-2.434-5.177c-2.345,0-2.742,1.947-2.742,5.177
			H469.527z"/>
		<path fill="#008BD5" d="M478.155,38.031h6.903v3.363h0.088c0.928-2.125,2.742-3.983,5.752-3.983c0.354,0,0.708,0,1.15,0.089v6.726
			c-0.709-0.133-1.284-0.177-1.99-0.177c-2.878,0-4.736,1.194-4.736,4.336V61.97h-7.167V38.031z"/>
	</g>
</g>
</svg>
